<?xml version="1.0" encoding="UTF-8" standalone="no"?>
<!-- Creator: Snipicons.com -->

<svg
   xmlns:dc="http://purl.org/dc/elements/1.1/"
   xmlns:cc="http://creativecommons.org/ns#"
   xmlns:rdf="http://www.w3.org/1999/02/22-rdf-syntax-ns#"
   xmlns:svg="http://www.w3.org/2000/svg"
   xmlns="http://www.w3.org/2000/svg"
   xmlns:xlink="http://www.w3.org/1999/xlink"
   xmlns:sodipodi="http://sodipodi.sourceforge.net/DTD/sodipodi-0.dtd"
   xmlns:inkscape="http://www.inkscape.org/namespaces/inkscape"
   xml:space="preserve"
   width="100%"
   height="100%"
   version="1.1"
   style="shape-rendering:geometricPrecision; text-rendering:geometricPrecision; image-rendering:optimizeQuality; fill-rule:evenodd; clip-rule:evenodd"
   viewBox="0 0 500 500"
   id="svg2"
   inkscape:version="0.48.4 r9939"
   sodipodi:docname="bigger_or_equal.svg"
   inkscape:export-filename="C:\Users\PeterSchregle\Desktop\nVision Icons\bigger_or_equal.png"
   inkscape:export-xdpi="5.7600002"
   inkscape:export-ydpi="5.7600002"><metadata
   id="metadata24"><rdf:RDF><cc:Work
       rdf:about=""><dc:format>image/svg+xml</dc:format><dc:type
         rdf:resource="http://purl.org/dc/dcmitype/StillImage" /><dc:title></dc:title></cc:Work></rdf:RDF></metadata><sodipodi:namedview
   pagecolor="#ffffff"
   bordercolor="#666666"
   borderopacity="1"
   objecttolerance="10"
   gridtolerance="10"
   guidetolerance="10"
   inkscape:pageopacity="0"
   inkscape:pageshadow="2"
   inkscape:window-width="640"
   inkscape:window-height="480"
   id="namedview22"
   showgrid="false"
   inkscape:zoom="0.472"
   inkscape:cx="250"
   inkscape:cy="250"
   inkscape:window-x="4453"
   inkscape:window-y="581"
   inkscape:window-maximized="0"
   inkscape:current-layer="svg2" />
 <defs
   id="defs4">
  <style
   type="text/css"
   id="style6">
   
    .str1 {stroke:#62B0FF;stroke-width:0.1}
    .str0 {stroke:#434242;stroke-width:10;stroke-linejoin:round}
    .fil2 {fill:none}
    .fil1 {fill:url(#id0)}
    .fil0 {fill:url(#id1)}
   
  </style>
  <linearGradient
   id="id0"
   gradientUnits="userSpaceOnUse"
   x1="251.117"
   y1="429.241"
   x2="251.117"
   y2="376.741">
   <stop
   offset="0"
   style="stop-color:#3B9CFF"
   id="stop9" />
   <stop
   offset="0.509804"
   style="stop-color:#1E8EFF"
   id="stop11" />
   <stop
   offset="1"
   style="stop-color:#007FFF"
   id="stop13" />
  </linearGradient>
  <linearGradient
   id="id1"
   gradientUnits="userSpaceOnUse"
   xlink:href="#id0"
   x1="353.982"
   y1="336.462"
   x2="143.98"
   y2="336.462">
  </linearGradient>
 </defs>
 <g
   id="Layer_x0020_1">
  <metadata
   id="SnipMaster" />
  <path
   class="fil0 str0"
   d="M392 245l-280 105c-3,1 -6,1 -9,-1 -2,-2 -4,-5 -4,-8l0 -54c0,-4 3,-8 7,-9l170 -63c4,-2 7,-6 7,-10 0,-4 -3,-8 -7,-9l-170 -63c-4,-2 -7,-5 -7,-10l0 -53c0,-4 2,-7 4,-9 3,-2 6,-2 9,-1l280 105c4,2 7,5 7,10 0,20 0,40 0,61 0,4 -3,8 -7,9z"
   id="path18" />
  <path
   class="fil1 str0"
   d="M116 440c-8,0 -15,-6 -15,-15l0 -45c0,-8 7,-15 15,-15 178,0 92,0 270,0 8,0 15,7 15,15l0 45c0,9 -7,15 -15,15 -178,0 -92,0 -270,0z"
   id="path20" />
  
 </g>
</svg>