<?xml version="1.0" encoding="UTF-8" standalone="no"?>
<!-- Creator: Snipicons.com -->

<svg
   xmlns:dc="http://purl.org/dc/elements/1.1/"
   xmlns:cc="http://creativecommons.org/ns#"
   xmlns:rdf="http://www.w3.org/1999/02/22-rdf-syntax-ns#"
   xmlns:svg="http://www.w3.org/2000/svg"
   xmlns="http://www.w3.org/2000/svg"
   xmlns:sodipodi="http://sodipodi.sourceforge.net/DTD/sodipodi-0.dtd"
   xmlns:inkscape="http://www.inkscape.org/namespaces/inkscape"
   xml:space="preserve"
   width="100%"
   height="100%"
   version="1.1"
   style="shape-rendering:geometricPrecision; text-rendering:geometricPrecision; image-rendering:optimizeQuality; fill-rule:evenodd; clip-rule:evenodd"
   viewBox="0 0 500 500"
   id="svg2"
   inkscape:version="0.48.4 r9939"
   sodipodi:docname="commit_data_row.svg"
   inkscape:export-filename="C:\Users\PeterSchregle\Desktop\nVision Icons\commit_data_row.png"
   inkscape:export-xdpi="5.7600002"
   inkscape:export-ydpi="5.7600002"><metadata
   id="metadata20"><rdf:RDF><cc:Work
       rdf:about=""><dc:format>image/svg+xml</dc:format><dc:type
         rdf:resource="http://purl.org/dc/dcmitype/StillImage" /><dc:title></dc:title></cc:Work></rdf:RDF></metadata><sodipodi:namedview
   pagecolor="#ffffff"
   bordercolor="#666666"
   borderopacity="1"
   objecttolerance="10"
   gridtolerance="10"
   guidetolerance="10"
   inkscape:pageopacity="0"
   inkscape:pageshadow="2"
   inkscape:window-width="640"
   inkscape:window-height="480"
   id="namedview18"
   showgrid="false"
   inkscape:zoom="0.472"
   inkscape:cx="250"
   inkscape:cy="250"
   inkscape:window-x="4676"
   inkscape:window-y="668"
   inkscape:window-maximized="0"
   inkscape:current-layer="svg2" />
 <defs
   id="defs4">
  <style
   type="text/css"
   id="style6">
   
    .str0 {stroke:#3B9CFF;stroke-width:22.21}
    .str1 {stroke:#434242;stroke-width:5}
    .str2 {stroke:gray;stroke-width:7.5}
    .str3 {stroke:#666666;stroke-width:10}
    .fil0 {fill:none}
    .fil1 {fill:#008DEB}
    .fil2 {fill:#61A629;fill-rule:nonzero}
   
  </style>
 </defs>
 <g
   id="Layer_x0020_1">
  <metadata
   id="SnipMaster" />
  
  <rect
   class="fil1"
   x="20"
   y="270"
   width="459.998"
   height="50"
   id="rect10" />
  <path
   class="fil2 str1"
   d="M93 25l69 0 87 87 88 -87 68 0 0 39 -52 0 -84 84 0 47 24 0c1,0 3,1 2,2l-43 55c-1,1 -3,1 -4,0l-43 -55c-1,-1 1,-2 2,-2l23 0 0 -47 -84 -84 -53 0 0 -39z"
   id="path12" />
  <path
   class="fil0 str2"
   d="M135 320l0 160m115 -160l0 160m120 -160l0 160m-350 -50l460 0m-460 -58l460 0"
   id="path14" />
  <path
   class="fil0 str3"
   d="M20 270l460 0 0 210 -460 0 0 -210zm0 50l460 0"
   id="path16" />
 </g>
</svg>