<?xml version="1.0" encoding="UTF-8" standalone="no"?>
<svg
   xmlns:dc="http://purl.org/dc/elements/1.1/"
   xmlns:cc="http://creativecommons.org/ns#"
   xmlns:rdf="http://www.w3.org/1999/02/22-rdf-syntax-ns#"
   xmlns:svg="http://www.w3.org/2000/svg"
   xmlns="http://www.w3.org/2000/svg"
   xmlns:sodipodi="http://sodipodi.sourceforge.net/DTD/sodipodi-0.dtd"
   xmlns:inkscape="http://www.inkscape.org/namespaces/inkscape"
   shape-rendering="geometricPrecision"
   text-rendering="geometricPrecision"
   image-rendering="optimizeQuality"
   fill-rule="evenodd"
   clip-rule="evenodd"
   viewBox="0 0 500 500"
   id="svg3129"
   version="1.1"
   inkscape:version="0.48.5 r10040"
   width="100%"
   height="100%"
   sodipodi:docname="direction.svg"
   inkscape:export-filename="C:\Users\PeterSchregle\Desktop\direction.png"
   inkscape:export-xdpi="5.7600002"
   inkscape:export-ydpi="5.7600002">
  <metadata
     id="metadata3166">
    <rdf:RDF>
      <cc:Work
         rdf:about="">
        <dc:format>image/svg+xml</dc:format>
        <dc:type
           rdf:resource="http://purl.org/dc/dcmitype/StillImage" />
        <dc:title></dc:title>
      </cc:Work>
    </rdf:RDF>
  </metadata>
  <sodipodi:namedview
     pagecolor="#ffffff"
     bordercolor="#666666"
     borderopacity="1"
     objecttolerance="10"
     gridtolerance="10"
     guidetolerance="10"
     inkscape:pageopacity="0"
     inkscape:pageshadow="2"
     inkscape:window-width="640"
     inkscape:window-height="480"
     id="namedview3164"
     showgrid="false"
     inkscape:zoom="0.472"
     inkscape:cx="250"
     inkscape:cy="250"
     inkscape:window-x="4224"
     inkscape:window-y="166"
     inkscape:window-maximized="0"
     inkscape:current-layer="svg3129" />
  <defs
     id="defs3131">
    <radialGradient
       id="a"
       gradientUnits="userSpaceOnUse"
       cx="250"
       cy="250"
       r="207"
       fx="250"
       fy="250">
      <stop
         offset="0"
         stop-color="#fff"
         id="stop3134" />
      <stop
         offset=".588"
         stop-color="#f5f5f5"
         id="stop3136" />
      <stop
         offset="1"
         stop-color="#979798"
         id="stop3138" />
    </radialGradient>
  </defs>
  <g
     id="g3140">
    <circle
       fill="#008BFF"
       stroke="#434242"
       stroke-width="10"
       cx="250"
       cy="250"
       r="225"
       id="circle3142" />
    <circle
       fill="url(#a)"
       stroke="#434242"
       stroke-width="10"
       cx="250"
       cy="250"
       r="185"
       id="circle3144" />
    <path
       fill="#434242"
       d="M407 247h-16v1c0 2 1 4 2 5 2 2 4 2 7 3v1h-21v-1l6-2c1-1 2-1 3-3v-4h-15l-1 1c-1 1-1 2-1 3v2c0 4 1 7 3 9 2 3 4 4 8 5v1l-13-1v-35h1v1c0 1 0 2 1 3 0 0 0 1 1 1h34c1 0 1 0 2-1v-4h2v34h-12v-2c2 0 5-1 6-2l3-4v-11zm-146 117l1 13h-2c0-3-2-6-4-8s-5-3-7-3-4 1-5 2-2 2-2 3 0 2 1 3c0 1 1 2 3 3 0 0 3 1 6 3 5 2 8 5 10 7 1 2 2 4 2 7s-1 6-4 8c-3 3-6 4-10 4h-4c-1-1-2-1-4-2h-4l-1 2h-1v-15h1c1 4 2 7 5 10 2 2 5 3 8 3 2 0 4-1 5-2 2-1 2-2 2-4 0-1 0-2-1-3 0-1-1-2-2-2-1-1-3-2-5-3-4-2-7-4-8-5-2-1-3-3-4-4-1-2-1-4-1-6 0-3 1-5 3-8 3-2 6-3 9-3h4l3 2c2 0 3 1 3 1 1 0 1-1 1-1 1 0 1-1 1-2h1zm-135-84h-1v-2l-2-1s-2-1-5-2l-33-13v-1l26-10-26-11v-1l33-13c3-2 5-3 6-3 1-1 1-2 1-3h1v18h-1v-3c-1-1-1-1-2-1l-5 2-19 7 15 7 4-2c3-1 4-1 5-2 1 0 2-1 2-2v-2h1v19h-1v-3s0-1-1-1h-1s-2 0-4 1l-19 7 17 7c2 1 3 1 4 1 0 0 1 1 2 1 0 0 1-1 2-1v-3h1v10zm117-188l20 25v-17c0-3 0-4-1-5s-2-2-5-2v-1h14v1c-2 0-3 1-4 1 0 0-1 1-1 2 0 0-1 2-1 4v33h-1l-27-33v25c0 3 1 4 2 5s2 1 3 1h1v1h-14v-1c2 0 4 0 5-1s1-2 1-5v-28l-1-1c-1-1-1-2-2-2-1-1-2-1-3-1v-1h14z"
       id="path3146" />
    <path
       stroke="#434242"
       stroke-width="7.5"
       stroke-linecap="round"
       d="M430 250h-15m-330 0h-15m180-180v15m0 330v15m174-133l-15-4m-318-86l-15-4m221-127l-4 15m-86 318l-4 15m203-84l-13-7m-286-166l-13-7m246-66l-8 13m-165 286l-7 13m217-29l-10-10m-234-234l-10-10m254 0l-10 10m-234 234l-10 10m217 29l-8-13m-165-286l-7-13m246 66l-13 8m-286 165l-13 7m203 84l-4-15m-86-318l-4-15m221 127l-15 4m-318 86l-15 4"
       fill="none"
       id="path3148" />
    <polygon
       fill="#CDCDCE"
       points="250,345 267,267 345,250 267,233 250,155 233,233 155,250 233,267"
       id="polygon3150" />
    <polygon
       stroke="#434242"
       stroke-width="10"
       stroke-linejoin="round"
       points="356,144 235,235 144,356 265,265"
       fill="none"
       id="polygon3152" />
    <polygon
       fill="#279DFF"
       points="353,147 265,265 250,250"
       id="polygon3154" />
    <polygon
       fill="#474747"
       points="147,353 235,235 250,250"
       id="polygon3156" />
    <polygon
       fill="#6D6D6D"
       points="147,353 265,265 250,250"
       id="polygon3158" />
    <polygon
       fill="#0076D8"
       points="353,147 235,235 250,250"
       id="polygon3160" />
    <circle
       fill="#FFFFFF"
       stroke="#434242"
       stroke-width="5"
       transform="matrix(.455 .455 -.455 .455 249.998 250)"
       r="20"
       id="circle3162" />
  </g>
</svg>
