<?xml version="1.0" encoding="UTF-8" standalone="no"?>
<!-- Creator: CorelDRAW X6 -->

<svg
   xmlns:dc="http://purl.org/dc/elements/1.1/"
   xmlns:cc="http://creativecommons.org/ns#"
   xmlns:rdf="http://www.w3.org/1999/02/22-rdf-syntax-ns#"
   xmlns:svg="http://www.w3.org/2000/svg"
   xmlns="http://www.w3.org/2000/svg"
   xmlns:sodipodi="http://sodipodi.sourceforge.net/DTD/sodipodi-0.dtd"
   xmlns:inkscape="http://www.inkscape.org/namespaces/inkscape"
   xml:space="preserve"
   width="100%"
   height="100%"
   version="1.1"
   style="shape-rendering:geometricPrecision; text-rendering:geometricPrecision; image-rendering:optimizeQuality; fill-rule:evenodd; clip-rule:evenodd"
   viewBox="0 0 500 500"
   id="svg2"
   inkscape:version="0.48.4 r9939"
   sodipodi:docname="filter.svg"
   inkscape:export-filename="C:\Users\PeterSchregle\Desktop\nVision Icons\filter.png"
   inkscape:export-xdpi="5.7600002"
   inkscape:export-ydpi="5.7600002"><metadata
   id="metadata16"><rdf:RDF><cc:Work
       rdf:about=""><dc:format>image/svg+xml</dc:format><dc:type
         rdf:resource="http://purl.org/dc/dcmitype/StillImage" /><dc:title></dc:title></cc:Work></rdf:RDF></metadata><sodipodi:namedview
   pagecolor="#ffffff"
   bordercolor="#666666"
   borderopacity="1"
   objecttolerance="10"
   gridtolerance="10"
   guidetolerance="10"
   inkscape:pageopacity="0"
   inkscape:pageshadow="2"
   inkscape:window-width="640"
   inkscape:window-height="480"
   id="namedview14"
   showgrid="false"
   inkscape:zoom="0.472"
   inkscape:cx="250"
   inkscape:cy="250"
   inkscape:window-x="4447"
   inkscape:window-y="721"
   inkscape:window-maximized="0"
   inkscape:current-layer="svg2" />
 <defs
   id="defs4">
  <style
   type="text/css"
   id="style6">
   
    .str1 {stroke:#434242;stroke-width:10;stroke-linejoin:round}
    .fil1 {fill:none}
    .fil0 {fill:#008DEB}
   
  </style>
 </defs>
 <g
   id="Layer_x0020_1">
  <metadata
   id="CorelCorpID_0Corel-Layer" />
  <path
   class="fil0"
   d="M150 167c-6,-6 -5,-24 9,-24l182 0c16,0 15,17 9,24 -24,30 -51,57 -76,85 -5,5 -5,10 -5,15l0 154c0,6 -4,8 -9,8l-29 -24 0 -138c0,-5 0,-10 -5,-15l-76 -85zm-100 -82c-6,-6 -10,-13 -10,-21 0,-16 13,-29 28,-29 121,0 243,0 364,0 15,0 28,13 28,29 0,8 -4,15 -10,21 -51,56 -101,113 -152,170 -10,9 -10,18 -10,28l0 163c0,9 -9,19 -19,19l-57 -48 0 -134c0,-9 0,-19 -10,-28 -51,-57 -101,-114 -152,-170z"
   id="path10" />
  <path
   class="fil1 str1"
   d="M50 85c-6,-6 -10,-13 -10,-21 0,-16 13,-29 28,-29 121,0 243,0 364,0 15,0 28,13 28,29 0,8 -4,15 -10,21 -51,56 -101,113 -152,170 -10,9 -10,18 -10,28l0 163c0,9 -9,19 -19,19l-57 -48 0 -134c0,-9 0,-19 -10,-28 -51,-57 -101,-114 -152,-170z"
   id="path12" />
 </g>
</svg>