<?xml version="1.0" encoding="UTF-8" standalone="no"?>
<svg
   xmlns:dc="http://purl.org/dc/elements/1.1/"
   xmlns:cc="http://creativecommons.org/ns#"
   xmlns:rdf="http://www.w3.org/1999/02/22-rdf-syntax-ns#"
   xmlns:svg="http://www.w3.org/2000/svg"
   xmlns="http://www.w3.org/2000/svg"
   xmlns:sodipodi="http://sodipodi.sourceforge.net/DTD/sodipodi-0.dtd"
   xmlns:inkscape="http://www.inkscape.org/namespaces/inkscape"
   xml:space="preserve"
   width="100%"
   height="100%"
   version="1.1"
   style="shape-rendering:geometricPrecision; text-rendering:geometricPrecision; image-rendering:optimizeQuality; fill-rule:evenodd; clip-rule:evenodd"
   viewBox="0 0 500 500"
   id="svg29765"
   inkscape:version="0.48.5 r10040"
   sodipodi:docname="geometry_angle.svg"
   inkscape:export-filename="C:\Users\PeterSchregle\Desktop\geometry_count_edgesangle.png"
   inkscape:export-xdpi="5.7600002"
   inkscape:export-ydpi="5.7600002"><metadata
   id="metadata29779"><rdf:RDF><cc:Work
       rdf:about=""><dc:format>image/svg+xml</dc:format><dc:type
         rdf:resource="http://purl.org/dc/dcmitype/StillImage" /><dc:title></dc:title></cc:Work></rdf:RDF></metadata><sodipodi:namedview
   pagecolor="#ffffff"
   bordercolor="#666666"
   borderopacity="1"
   objecttolerance="10"
   gridtolerance="10"
   guidetolerance="10"
   inkscape:pageopacity="0"
   inkscape:pageshadow="2"
   inkscape:window-width="2560"
   inkscape:window-height="1537"
   id="namedview29777"
   showgrid="false"
   inkscape:zoom="1.89"
   inkscape:cx="108.28497"
   inkscape:cy="254.44003"
   inkscape:window-x="2872"
   inkscape:window-y="-8"
   inkscape:window-maximized="1"
   inkscape:current-layer="svg29765"
   showguides="true"
   inkscape:guide-bbox="true" />
 <defs
   id="defs29767">
  <style
   type="text/css"
   id="style29769">
   
    .str0 {stroke:#434242;stroke-width:30}
    .fil0 {fill:none}
    .fil1 {fill:#434242}
   
  </style>
 
  
  
  
 </defs>
 
<g
   transform="translate(-2630.7837,-2380.4233)"
   style="fill-rule:evenodd"
   id="Layer_x0020_1"><metadata
     id="CorelCorpID_0Corel-Layer" /><path
     inkscape:connector-curvature="0"
     class="fil0"
     d="M 4500,2300 3500,1300 c -50,-50 -100,-100 -200,-100 -100,0 -200,100 -200,200 l 0,500 c 0,50 -50,100 -100,100 l -2500,0 c -50,0 -100,50 -100,100 l 0,800 c 0,50 50,100 100,100 l 2500,0 c 50,0 100,50 100,100 l 0,500 c 0,100 100,200 200,200 100,0 150,-50 200,-100 L 4500,2700 c 135,-135 135,-265 0,-400 z"
     id="path5347"
     style="fill:none" /></g><g
   transform="translate(-2906.9742,-2533.3333)"
   style="fill-rule:evenodd"
   id="Layer_x0020_1-1"><metadata
     id="CorelCorpID_0Corel-Layer-7" /><path
     inkscape:connector-curvature="0"
     class="fil0"
     d="M 4500,2300 3500,1300 c -50,-50 -100,-100 -200,-100 -100,0 -200,100 -200,200 l 0,500 c 0,50 -50,100 -100,100 l -2500,0 c -50,0 -100,50 -100,100 l 0,800 c 0,50 50,100 100,100 l 2500,0 c 50,0 100,50 100,100 l 0,500 c 0,100 100,200 200,200 100,0 150,-50 200,-100 L 4500,2700 c 135,-135 135,-265 0,-400 z"
     id="path5347-4"
     style="fill:none" /></g><g
   transform="translate(-2911.207,-2531.746)"
   style="fill-rule:evenodd"
   id="Layer_x0020_1-0"><metadata
     id="CorelCorpID_0Corel-Layer-9" /><path
     inkscape:connector-curvature="0"
     class="fil0"
     d="M 4500,2300 3500,1300 c -50,-50 -100,-100 -200,-100 -100,0 -200,100 -200,200 l 0,500 c 0,50 -50,100 -100,100 l -2500,0 c -50,0 -100,50 -100,100 l 0,800 c 0,50 50,100 100,100 l 2500,0 c 50,0 100,50 100,100 l 0,500 c 0,100 100,200 200,200 100,0 150,-50 200,-100 L 4500,2700 c 135,-135 135,-265 0,-400 z"
     id="path5347-48"
     style="fill:none" /></g><g
   id="g6868"
   transform="matrix(0.8660254,-0.5,0.5,0.8660254,-92.848781,155.88322)"><g
     transform="translate(0.7522765,0)"
     id="g6852"><rect
       style="fill:#666666;fill-opacity:1;stroke:none"
       id="rect5433"
       width="40.174614"
       height="199.99883"
       x="150.03561"
       y="147.04436"
       ry="12.700717"
       rx="1.9109617"
       transform="matrix(0.999849,0.01737739,-7.0108006e-4,0.99999975,0,0)" /><rect
       style="fill:#666666;fill-opacity:1;fill-rule:evenodd;stroke:none"
       id="rect5433-1"
       width="40.174614"
       height="199.99883"
       x="229.37033"
       y="145.66573"
       ry="12.700717"
       rx="1.9109617"
       transform="matrix(0.999849,0.01737739,-7.0108006e-4,0.99999975,0,0)" /><rect
       style="fill:#666666;fill-opacity:1;fill-rule:evenodd;stroke:none"
       id="rect5433-7"
       width="40.174614"
       height="199.99883"
       x="308.70502"
       y="144.28709"
       ry="12.700717"
       rx="1.9109617"
       transform="matrix(0.999849,0.01737739,-7.0108006e-4,0.99999975,0,0)" /></g><path
     id="path5347-8-4-5"
     d="m 423.09375,199.90625 c -2.40542,-0.008 -4.83031,3.84136 -4.84375,7.6875 l -0.0625,19.21875 c -0.007,1.92305 -1.23482,3.84793 -2.4375,3.84375 l -60.125,-0.21875 c -0.24633,-8.2e-4 -0.48225,0.106 -0.71875,0.25 l -306.28125,0 c -1.146962,0 -2.0625,5.71523 -2.0625,12.8125 l 0,12.8125 c 0,7.09727 0.915538,12.8125 2.0625,12.8125 l 367,0 c 1.20269,0.004 2.41297,1.92072 2.40625,3.84375 l -0.0937,19.21875 c -0.0134,3.84612 2.40709,7.71035 4.8125,7.71875 2.40537,0.008 3.6031,-1.89366 4.8125,-3.8125 L 451.75,257.6875 c 3.26544,-5.18094 3.29171,-10.1714 0.0625,-15.375 L 427.875,203.78125 c -1.19594,-1.92726 -2.37587,-3.8666 -4.78125,-3.875 z"
     style="fill:#0099ff;fill-opacity:1;fill-rule:evenodd"
     inkscape:connector-curvature="0" /></g></svg>