<?xml version="1.0" encoding="UTF-8" standalone="no"?>
<!-- Creator: Snipicons.com -->

<svg
   xmlns:dc="http://purl.org/dc/elements/1.1/"
   xmlns:cc="http://creativecommons.org/ns#"
   xmlns:rdf="http://www.w3.org/1999/02/22-rdf-syntax-ns#"
   xmlns:svg="http://www.w3.org/2000/svg"
   xmlns="http://www.w3.org/2000/svg"
   xmlns:sodipodi="http://sodipodi.sourceforge.net/DTD/sodipodi-0.dtd"
   xmlns:inkscape="http://www.inkscape.org/namespaces/inkscape"
   xml:space="preserve"
   width="100%"
   height="100%"
   version="1.1"
   style="shape-rendering:geometricPrecision; text-rendering:geometricPrecision; image-rendering:optimizeQuality; fill-rule:evenodd; clip-rule:evenodd"
   viewBox="0 0 500 500"
   id="svg2"
   inkscape:version="0.48.4 r9939"
   sodipodi:docname="horizontal_edge.svg"
   inkscape:export-filename="C:\Users\PeterSchregle\Desktop\nVision Icons\horizontal_edge.png"
   inkscape:export-xdpi="5.7600002"
   inkscape:export-ydpi="5.7600002"><metadata
   id="metadata23"><rdf:RDF><cc:Work
       rdf:about=""><dc:format>image/svg+xml</dc:format><dc:type
         rdf:resource="http://purl.org/dc/dcmitype/StillImage" /><dc:title></dc:title></cc:Work></rdf:RDF></metadata><sodipodi:namedview
   pagecolor="#ffffff"
   bordercolor="#666666"
   borderopacity="1"
   objecttolerance="10"
   gridtolerance="10"
   guidetolerance="10"
   inkscape:pageopacity="0"
   inkscape:pageshadow="2"
   inkscape:window-width="640"
   inkscape:window-height="480"
   id="namedview21"
   showgrid="false"
   inkscape:zoom="0.472"
   inkscape:cx="250"
   inkscape:cy="250"
   inkscape:window-x="4566"
   inkscape:window-y="691"
   inkscape:window-maximized="0"
   inkscape:current-layer="svg2" />
 <defs
   id="defs4">
  <style
   type="text/css"
   id="style6">
   
    .str0 {stroke:#3B9CFF;stroke-width:22.21}
    .str1 {stroke:#434242;stroke-width:10}
    .fil1 {fill:none}
    .fil0 {fill:#727271}
    .fil3 {fill:#0099FF}
    .fil2 {fill:url(#id0)}
   
  </style>
  <radialGradient
   id="id0"
   gradientUnits="objectBoundingBox"
   cx="50.0003%"
   cy="76%"
   r="50%"
   fx="50.0003%"
   fy="76%">
   <stop
   offset="0"
   style="stop-color:#89D0FF"
   id="stop9" />
   <stop
   offset="1"
   style="stop-color:#008DEB"
   id="stop11" />
  </radialGradient>
 </defs>
 <g
   id="Layer_x0020_1">
  <metadata
   id="SnipMaster" />
  <path
   class="fil0"
   d="M265 40c4,9 8,17 13,25l-28 0 0 -40c5,0 10,5 15,15zm28 51c6,9 12,17 17,26l-60 0 0 -26 43 0zm36 51c6,9 13,18 19,26l-98 0 0 -26 79 0zm38 52c7,9 13,17 18,26l-135 0 0 -26 117 0zm34 52c4,8 8,17 11,25l-162 0 0 -25 151 0zm19 51c0,1 0,2 0,3 1,7 2,15 2,23l-172 0 0 -26 170 0zm-1 52c-2,8 -5,17 -8,26l-161 0 0 -26 169 0zm-21 51c-6,10 -12,18 -20,26l-128 0 0 -26 148 0zm-50 52c-26,17 -59,28 -98,28l0 -28 98 0z"
   id="path15" />
  
  <path
   class="fil2 str1"
   d="M235 40c-53,110 -141,177 -155,260 -12,75 48,180 170,180l0 -455c-5,0 -10,5 -15,15z"
   id="path17" />
  <path
   class="fil3"
   d="M24 37c-2,-2 -4,-5 -4,-8 0,-6 5,-11 11,-11 45,0 91,0 136,0 6,0 11,5 11,11 0,3 -2,6 -4,8 -19,21 -38,43 -57,64 -4,3 -4,7 -4,11l0 61c0,3 -3,7 -7,7l-22 -18 0 -50c0,-4 0,-8 -3,-11 -19,-21 -38,-43 -57,-64zm49 32c-2,-2 -1,-7 2,-7l47 0c5,0 4,5 3,7 -6,8 -13,15 -20,22 -1,1 -1,2 -1,4l0 64c0,1 -1,2 -3,2l-7 -6 0 -60c0,-2 0,-3 -1,-4l-20 -22z"
   id="path19" />
 </g>
</svg>