<?xml version="1.0" encoding="UTF-8" standalone="no"?>
<svg
   xmlns:dc="http://purl.org/dc/elements/1.1/"
   xmlns:cc="http://creativecommons.org/ns#"
   xmlns:rdf="http://www.w3.org/1999/02/22-rdf-syntax-ns#"
   xmlns:svg="http://www.w3.org/2000/svg"
   xmlns="http://www.w3.org/2000/svg"
   xmlns:sodipodi="http://sodipodi.sourceforge.net/DTD/sodipodi-0.dtd"
   xmlns:inkscape="http://www.inkscape.org/namespaces/inkscape"
   xml:space="preserve"
   width="100%"
   height="100%"
   version="1.1"
   style="shape-rendering:geometricPrecision; text-rendering:geometricPrecision; image-rendering:optimizeQuality; fill-rule:evenodd; clip-rule:evenodd"
   viewBox="0 0 500 500"
   id="svg2986"
   inkscape:version="0.48.5 r10040"
   sodipodi:docname="identify_matrixcode.svg"
   inkscape:export-filename="C:\Users\PeterSchregle\Desktop\identify_matrixcode.png"
   inkscape:export-xdpi="5.7600002"
   inkscape:export-ydpi="5.7600002"><metadata
   id="metadata3000"><rdf:RDF><cc:Work
       rdf:about=""><dc:format>image/svg+xml</dc:format><dc:type
         rdf:resource="http://purl.org/dc/dcmitype/StillImage" /><dc:title></dc:title></cc:Work></rdf:RDF></metadata><sodipodi:namedview
   pagecolor="#ffffff"
   bordercolor="#666666"
   borderopacity="1"
   objecttolerance="10"
   gridtolerance="10"
   guidetolerance="10"
   inkscape:pageopacity="0"
   inkscape:pageshadow="2"
   inkscape:window-width="2560"
   inkscape:window-height="1537"
   id="namedview2998"
   showgrid="false"
   inkscape:zoom="0.472"
   inkscape:cx="250"
   inkscape:cy="250"
   inkscape:window-x="2872"
   inkscape:window-y="-8"
   inkscape:window-maximized="1"
   inkscape:current-layer="svg2986" />
 <defs
   id="defs2988">
  <style
   type="text/css"
   id="style2990">
   
    .str0 {stroke:#434242;stroke-width:15}
    .fil0 {fill:none}
    .fil1 {fill:#434242}
   
  </style>
 
  
  
  
 </defs>
 <g
   id="g3772"><path
     class="fil0 str0"
     d="m 280,40 180,0 0,180 -180,0 0,-180 z m -240,240 180,0 0,180 -180,0 0,-180 z m 0,-240 180,0 0,180 -180,0 0,-180 z"
     id="path2994"
     inkscape:connector-curvature="0"
     style="fill:none;stroke:#008bff;stroke-width:15;stroke-opacity:1" /><path
     class="fil1"
     d="m 330,90 80,0 0,80 -80,0 0,-80 z m -240,0 80,0 0,80 -80,0 0,-80 z m 0,240 80,0 0,80 -80,0 0,-80 z m 180,-50 40,0 0,40 -40,0 0,-40 z m 60,0 20,0 0,40 -20,0 0,-40 z m 100,0 40,0 0,40 -40,0 0,-40 z m -160,70 60,0 0,40 -60,0 0,-40 z m 70,0 50,0 0,40 -50,0 0,-40 z m 90,0 40,0 0,40 -40,0 0,-40 z m -160,70 40,0 0,40 -40,0 0,-40 z m 90,-140 60,0 0,40 -60,0 0,-40 z m 40,70 20,0 0,40 -20,0 0,-40 z m 10,70 60,0 0,40 -60,0 0,-40 z m -10,0 -50,0 0,40 50,0 0,-40 z m -60,0 -20,0 0,40 20,0 0,-40 z"
     id="path2996"
     inkscape:connector-curvature="0"
     style="fill:#008bff;fill-opacity:1" /></g>
</svg>