<?xml version="1.0" encoding="UTF-8" standalone="no"?>
<!-- Creator: Snipicons.com -->

<svg
   xmlns:dc="http://purl.org/dc/elements/1.1/"
   xmlns:cc="http://creativecommons.org/ns#"
   xmlns:rdf="http://www.w3.org/1999/02/22-rdf-syntax-ns#"
   xmlns:svg="http://www.w3.org/2000/svg"
   xmlns="http://www.w3.org/2000/svg"
   xmlns:sodipodi="http://sodipodi.sourceforge.net/DTD/sodipodi-0.dtd"
   xmlns:inkscape="http://www.inkscape.org/namespaces/inkscape"
   xml:space="preserve"
   width="100%"
   height="100%"
   version="1.1"
   style="shape-rendering:geometricPrecision; text-rendering:geometricPrecision; image-rendering:optimizeQuality; fill-rule:evenodd; clip-rule:evenodd"
   viewBox="0 0 500 500"
   id="svg2"
   inkscape:version="0.48.4 r9939"
   sodipodi:docname="perspective.svg"
   inkscape:export-filename="C:\Users\PeterSchregle\Desktop\nVision Icons\perspective.png"
   inkscape:export-xdpi="5.7600002"
   inkscape:export-ydpi="5.7600002"><metadata
   id="metadata30"><rdf:RDF><cc:Work
       rdf:about=""><dc:format>image/svg+xml</dc:format><dc:type
         rdf:resource="http://purl.org/dc/dcmitype/StillImage" /><dc:title></dc:title></cc:Work></rdf:RDF></metadata><sodipodi:namedview
   pagecolor="#ffffff"
   bordercolor="#666666"
   borderopacity="1"
   objecttolerance="10"
   gridtolerance="10"
   guidetolerance="10"
   inkscape:pageopacity="0"
   inkscape:pageshadow="2"
   inkscape:window-width="640"
   inkscape:window-height="480"
   id="namedview28"
   showgrid="false"
   inkscape:zoom="0.472"
   inkscape:cx="250"
   inkscape:cy="250"
   inkscape:window-x="4471"
   inkscape:window-y="633"
   inkscape:window-maximized="0"
   inkscape:current-layer="svg2" />
 <defs
   id="defs4">
  <style
   type="text/css"
   id="style6">
   
    .str0 {stroke:#3B9CFF;stroke-width:22.21}
    .str3 {stroke:#434242;stroke-width:5}
    .str1 {stroke:#999999;stroke-width:5}
    .str2 {stroke:#0081D8;stroke-width:10}
    .fil0 {fill:none}
    .fil2 {fill:url(#id0)}
    .fil1 {fill:url(#id1)}
   
  </style>
  <linearGradient
   id="id0"
   gradientUnits="userSpaceOnUse"
   x1="250.305"
   y1="42.394"
   x2="250.305"
   y2="156.232">
   <stop
   offset="0"
   style="stop-color:#0081D8"
   id="stop9" />
   <stop
   offset="1"
   style="stop-color:#3BB0FF"
   id="stop11" />
  </linearGradient>
  <linearGradient
   id="id1"
   gradientUnits="userSpaceOnUse"
   x1="249.956"
   y1="184.372"
   x2="249.956"
   y2="408.824">
   <stop
   offset="0"
   style="stop-color:white;stop-opacity:0"
   id="stop14" />
   <stop
   offset="1"
   style="stop-color:gray;stop-opacity:0.1"
   id="stop16" />
  </linearGradient>
 </defs>
 <g
   id="Layer_x0020_1">
  <metadata
   id="SnipMaster" />
  
  <path
   class="fil1"
   d="M152 185c33,0 65,0 98,0 33,0 65,0 98,0 5,10 10,21 16,33 7,12 14,25 21,41 10,19 22,41 35,68 14,27 31,59 50,97 -37,0 -73,0 -110,0 -37,0 -73,0 -110,0 -37,0 -73,0 -110,0 -37,0 -73,0 -110,0 19,-38 36,-69 50,-97 13,-27 25,-49 35,-68 7,-16 14,-29 21,-41 6,-12 11,-23 16,-33z"
   id="path20" />
  <path
   class="fil0 str1"
   d="M355 199c-17,0 -35,0 -52,0 -18,0 -35,0 -53,0 -18,0 -35,0 -53,0 -17,0 -35,0 -52,0m219 17c-19,0 -38,0 -57,0 -19,0 -38,0 -57,0 -19,0 -38,0 -57,0 -19,0 -38,0 -57,0m238 19c-21,0 -42,0 -62,0 -21,0 -41,0 -62,0 -21,0 -41,0 -62,0 -20,0 -41,0 -62,0m259 24c-22,0 -45,0 -67,0 -23,0 -46,0 -68,0 -23,0 -45,0 -68,0 -22,0 -45,0 -67,0m285 28c-25,0 -50,0 -75,0 -25,0 -50,0 -75,0 -25,0 -50,0 -75,0 -25,0 -50,0 -75,0m318 35c-28,0 -56,0 -84,0 -28,0 -56,0 -84,0 -28,0 -56,0 -84,0 -28,0 -56,0 -84,0m358 44c-31,0 -63,0 -95,0 -32,0 -63,0 -95,0 -32,0 -64,0 -95,0 -32,0 -64,0 -95,0m117 -181c-4,10 -8,21 -13,33 -5,12 -10,25 -16,41 -7,19 -16,41 -26,68 -10,28 -23,59 -37,97m116 -239c-2,10 -5,21 -8,33 -3,12 -7,25 -11,41 -5,19 -10,41 -17,68 -7,28 -15,59 -25,97m86 -239c-2,10 -3,21 -5,33 -1,12 -3,25 -5,41 -2,19 -5,41 -9,68 -3,28 -7,59 -12,97m55 -239c0,10 0,21 0,33 0,12 0,25 0,41 0,19 0,41 0,68 0,28 0,59 0,97m24 -239c2,10 3,21 5,33 1,12 3,25 5,41 2,19 5,41 9,68 3,28 7,59 12,97m-6 -239c2,10 5,21 8,33 3,12 7,25 11,41 5,19 10,41 17,68 7,28 15,59 25,97m-37 -239c4,10 8,21 13,33 5,12 10,25 16,41 7,19 16,41 26,68 10,27 23,59 37,97"
   id="path22" />
  <path
   class="fil0 str2"
   d="M152 185c33,0 65,0 98,0 33,0 65,0 98,0 5,10 10,21 16,33 7,12 14,25 21,41 10,19 22,41 35,68 14,27 31,59 50,97 -37,0 -73,0 -110,0 -37,0 -73,0 -110,0 -37,0 -73,0 -110,0 -37,0 -73,0 -110,0 19,-38 36,-69 50,-97 13,-27 25,-49 35,-68 7,-16 14,-29 21,-41 6,-12 11,-23 16,-33z"
   id="path24" />
  <path
   class="fil2 str3"
   d="M158 143l0 -47c0,-4 0,-8 -4,-12 -4,-3 -12,-3 -16,0l-7 8c-2,2 -6,2 -8,0l-52 -52 -32 31 53 52c2,2 2,6 0,8l-8 8c-4,4 -4,12 0,16 4,4 8,4 12,4l46 0c11,0 16,-5 16,-16zm185 0l0 -47c0,-4 0,-8 4,-12 3,-3 11,-3 15,0l8 8c2,2 6,2 8,0l52 -52 31 31 -52 52c-2,2 -2,6 0,8l8 8c4,4 4,12 0,16 -4,4 -8,4 -12,4l-47 0c-10,0 -15,-5 -15,-16z"
   id="path26" />
 </g>
</svg>