<?xml version="1.0" encoding="UTF-8"?>
<!DOCTYPE svg PUBLIC "-//W3C//DTD SVG 1.1//EN" "http://www.w3.org/Graphics/SVG/1.1/DTD/svg11.dtd">
<!-- Creator: Snipicons.com -->
<svg xmlns="http://www.w3.org/2000/svg" xml:space="preserve" width="100%" height="100%" version="1.1" style="shape-rendering:geometricPrecision; text-rendering:geometricPrecision; image-rendering:optimizeQuality; fill-rule:evenodd; clip-rule:evenodd"
viewBox="0 0 500 500"
 xmlns:xlink="http://www.w3.org/1999/xlink">
 <defs>
  <style type="text/css">
   <![CDATA[
    .str0 {stroke:#3B9CFF;stroke-width:22.21}
    .str1 {stroke:#888888;stroke-width:10;stroke-linejoin:round}
    .fil0 {fill:none}
    .fil2 {fill:#777777;opacity:0.7}
    .fil1 {fill:url(#id0)}
    .fil3 {fill:url(#id1)}
   ]]>
  </style>
  <linearGradient id="id0" gradientUnits="userSpaceOnUse" x1="193.493" y1="448.004" x2="193.493" y2="52.006">
   <stop offset="0" style="stop-color:black;stop-opacity:0.2"/>
   <stop offset="0.2" style="stop-color:black;stop-opacity:0"/>
   <stop offset="0.5" style="stop-color:white;stop-opacity:0"/>
   <stop offset="0.8" style="stop-color:black;stop-opacity:0"/>
   <stop offset="1" style="stop-color:black;stop-opacity:0.2"/>
  </linearGradient>
  <linearGradient id="id1" gradientUnits="userSpaceOnUse" x1="287.153" y1="184.961" x2="448.483" y2="23.631">
   <stop offset="0" style="stop-color:#3B9CFF"/>
   <stop offset="0.509804" style="stop-color:#1E8EFF"/>
   <stop offset="1" style="stop-color:#007FFF"/>
  </linearGradient>
 </defs>
 <g id="Layer_x0020_1">
  <metadata id="SnipMaster"/>
  
  <path class="fil1 str1" d="M58 83l79 0 56 -58 57 58 78 0c19,0 34,15 34,33l0 268c0,18 -15,33 -34,33l-78 0 -57 58 -56 -58 -79 0c-18,0 -33,-15 -33,-33l0 -268c0,-18 15,-33 33,-33z"/>
  <polygon class="fil2" points="67,312 171,312 192,275 213,312 261,312 261,337 320,299 261,261 261,287 228,287 207,250 228,213 261,213 261,239 320,201 261,163 261,188 213,188 192,225 171,188 67,188 67,213 157,213 178,250 157,287 67,287 "/>
  <path class="fil3 str1" d="M447 25l-130 0c-5,0 -10,0 -14,5 -5,4 -5,14 0,18l28 28c2,3 2,7 0,10l-91 90c-3,3 -3,7 0,10 22,21 43,43 65,65 2,2 7,2 9,0l91 -91c3,-2 7,-2 9,0l28 28c5,5 14,5 19,0 5,-5 5,-9 5,-14l0 -130c0,-13 -6,-19 -19,-19z"/>
 </g>
</svg>
