<?xml version="1.0" encoding="UTF-8" standalone="no"?>
<!-- Creator: Snipicons.com -->

<svg
   xmlns:dc="http://purl.org/dc/elements/1.1/"
   xmlns:cc="http://creativecommons.org/ns#"
   xmlns:rdf="http://www.w3.org/1999/02/22-rdf-syntax-ns#"
   xmlns:svg="http://www.w3.org/2000/svg"
   xmlns="http://www.w3.org/2000/svg"
   xmlns:sodipodi="http://sodipodi.sourceforge.net/DTD/sodipodi-0.dtd"
   xmlns:inkscape="http://www.inkscape.org/namespaces/inkscape"
   xml:space="preserve"
   width="100%"
   height="100%"
   version="1.1"
   style="shape-rendering:geometricPrecision; text-rendering:geometricPrecision; image-rendering:optimizeQuality; fill-rule:evenodd; clip-rule:evenodd"
   viewBox="0 0 500 500"
   id="svg2"
   inkscape:version="0.48.4 r9939"
   sodipodi:docname="rotate90ccw.svg"
   inkscape:export-filename="C:\Users\PeterSchregle\Desktop\nVision Icons\rotate90ccw.png"
   inkscape:export-xdpi="5.7600002"
   inkscape:export-ydpi="5.7600002"><metadata
   id="metadata30"><rdf:RDF><cc:Work
       rdf:about=""><dc:format>image/svg+xml</dc:format><dc:type
         rdf:resource="http://purl.org/dc/dcmitype/StillImage" /><dc:title></dc:title></cc:Work></rdf:RDF></metadata><sodipodi:namedview
   pagecolor="#ffffff"
   bordercolor="#666666"
   borderopacity="1"
   objecttolerance="10"
   gridtolerance="10"
   guidetolerance="10"
   inkscape:pageopacity="0"
   inkscape:pageshadow="2"
   inkscape:window-width="640"
   inkscape:window-height="480"
   id="namedview28"
   showgrid="false"
   inkscape:zoom="0.472"
   inkscape:cx="250"
   inkscape:cy="250"
   inkscape:window-x="4525"
   inkscape:window-y="649"
   inkscape:window-maximized="0"
   inkscape:current-layer="svg2" />
 <defs
   id="defs4">
  <style
   type="text/css"
   id="style6">
   
    .str4 {stroke:#3B9CFF;stroke-width:22.21}
    .str3 {stroke:#434242;stroke-width:5}
    .str0 {stroke:#434242;stroke-width:10}
    .str1 {stroke:#666666;stroke-width:10}
    .str2 {stroke:#2B2A29;stroke-width:10;stroke-dasharray:20.000000 10.000000}
    .fil2 {fill:none}
    .fil1 {fill:#C5C5C5;fill-opacity:0.3}
    .fil0 {fill:url(#id0)}
    .fil3 {fill:url(#id1)}
   
  </style>
  <linearGradient
   id="id0"
   gradientUnits="userSpaceOnUse"
   x1="384.423"
   y1="149.889"
   x2="384.423"
   y2="492.191">
   <stop
   offset="0"
   style="stop-color:#008DEB"
   id="stop9" />
   <stop
   offset="1"
   style="stop-color:#3BB0FF"
   id="stop11" />
  </linearGradient>
  <linearGradient
   id="id1"
   gradientUnits="userSpaceOnUse"
   x1="204.258"
   y1="80.389"
   x2="89.734"
   y2="194.914">
   <stop
   offset="0"
   style="stop-color:#0081D8"
   id="stop14" />
   <stop
   offset="1"
   style="stop-color:#3BB0FF"
   id="stop16" />
  </linearGradient>
 </defs>
 <g
   id="Layer_x0020_1">
  <metadata
   id="SnipMaster" />
  <polygon
   class="fil0 str0"
   points="295,135 305,135 475,470 295,470 "
   id="polygon20" />
  <polygon
   class="fil1 str1"
   points="30,470 30,440 240,295 240,470 "
   id="polygon22" />
  <line
   class="fil2 str2"
   x1="270"
   y1="20"
   x2="270"
   y2="480"
   id="line24" />
  <path
   class="fil3 str3"
   d="M69 66c42,-41 110,-41 152,0 42,42 42,111 0,153 -22,21 -51,32 -79,31l0 -54c15,1 30,-4 41,-15 21,-21 21,-56 0,-76 -21,-21 -55,-21 -76,0 6,6 13,12 19,19 4,4 4,11 0,15 -4,4 -7,4 -11,4l-69 0c-4,0 -8,-1 -11,-4 -4,-4 -4,-8 -4,-11l0 -69c0,-4 0,-7 4,-11 4,-4 11,-4 15,0 6,6 13,12 19,18z"
   id="path26" />
  
 </g>
</svg>