<?xml version="1.0" encoding="UTF-8" standalone="no"?>
<!-- Creator: Snipicons.com -->

<svg
   xmlns:dc="http://purl.org/dc/elements/1.1/"
   xmlns:cc="http://creativecommons.org/ns#"
   xmlns:rdf="http://www.w3.org/1999/02/22-rdf-syntax-ns#"
   xmlns:svg="http://www.w3.org/2000/svg"
   xmlns="http://www.w3.org/2000/svg"
   xmlns:xlink="http://www.w3.org/1999/xlink"
   xmlns:sodipodi="http://sodipodi.sourceforge.net/DTD/sodipodi-0.dtd"
   xmlns:inkscape="http://www.inkscape.org/namespaces/inkscape"
   xml:space="preserve"
   width="100%"
   height="100%"
   version="1.1"
   style="shape-rendering:geometricPrecision; text-rendering:geometricPrecision; image-rendering:optimizeQuality; fill-rule:evenodd; clip-rule:evenodd"
   viewBox="0 0 500 500"
   id="svg2"
   inkscape:version="0.48.4 r9939"
   sodipodi:docname="scale.svg"
   inkscape:export-filename="C:\Users\PeterSchregle\Desktop\nVision Icons\scale.png"
   inkscape:export-xdpi="5.7600002"
   inkscape:export-ydpi="5.7600002"><metadata
   id="metadata35"><rdf:RDF><cc:Work
       rdf:about=""><dc:format>image/svg+xml</dc:format><dc:type
         rdf:resource="http://purl.org/dc/dcmitype/StillImage" /><dc:title></dc:title></cc:Work></rdf:RDF></metadata><sodipodi:namedview
   pagecolor="#ffffff"
   bordercolor="#666666"
   borderopacity="1"
   objecttolerance="10"
   gridtolerance="10"
   guidetolerance="10"
   inkscape:pageopacity="0"
   inkscape:pageshadow="2"
   inkscape:window-width="640"
   inkscape:window-height="480"
   id="namedview33"
   showgrid="false"
   inkscape:zoom="0.472"
   inkscape:cx="250"
   inkscape:cy="250"
   inkscape:window-x="4428"
   inkscape:window-y="722"
   inkscape:window-maximized="0"
   inkscape:current-layer="svg2" />
 <defs
   id="defs4">
  <style
   type="text/css"
   id="style6">
   
    
    .str4 {stroke:#434242;stroke-width:5}
    .str0 {stroke:#999999;stroke-width:5}
    .str3 {stroke:#0081D8;stroke-width:10}
    .str2 {stroke:#979797;stroke-width:10}
    .fil1 {fill:none}
    .fil2 {fill:#F3F3F3;fill-opacity:0.3}
    .fil0 {fill:url(#id0)}
    .fil4 {fill:url(#id1)}
    .fil3 {fill:url(#id2)}
   
  </style>
  <linearGradient
   id="id0"
   gradientUnits="userSpaceOnUse"
   x1="250.004"
   y1="50.008"
   x2="250.004"
   y2="450.002">
   <stop
   offset="0"
   style="stop-color:white;stop-opacity:0"
   id="stop9" />
   <stop
   offset="1"
   style="stop-color:gray;stop-opacity:0.1"
   id="stop11" />
  </linearGradient>
  <linearGradient
   id="id1"
   gradientUnits="userSpaceOnUse"
   x1="125.004"
   y1="73.366"
   x2="125.004"
   y2="224.491">
   <stop
   offset="0"
   style="stop-color:#0081D8"
   id="stop14" />
   <stop
   offset="1"
   style="stop-color:#3BB0FF"
   id="stop16" />
  </linearGradient>
  <linearGradient
   id="id2"
   gradientUnits="userSpaceOnUse"
   xlink:href="#id1"
   x1="407.158"
   y1="380.914"
   x2="289.682"
   y2="380.914">
  </linearGradient>
 </defs>
 <g
   id="Layer_x0020_1">
  <metadata
   id="SnipMaster" />
  <rect
   class="fil0"
   x="50"
   y="50"
   width="400"
   height="400"
   id="rect21" />
  <path
   class="fil1 str0"
   d="M450 100l-400 0m400 50l-400 0m400 50l-400 0m400 50l-400 0m400 50l-400 0m400 50l-400 0m400 50l-400 0m50 -350l0 400m50 -400l0 400m50 -400l0 400m50 -400l0 400m50 -400l0 400m50 -400l0 400m50 -400l0 400"
   id="path23" />
  
  <rect
   class="fil1 str2"
   x="50"
   y="50"
   width="400"
   height="400"
   id="rect25" />
  <rect
   class="fil2 str3"
   x="50"
   y="250"
   width="200"
   height="200"
   id="rect27" />
  <path
   class="fil3 str4"
   d="M424 362l-39 -39c-3,-3 -6,-6 -13,-6 -6,0 -12,6 -12,13l0 13c0,3 -3,6 -7,6l-85 0 0 51 85 0c4,0 7,3 7,6l0 13c0,7 6,13 12,13 7,0 10,-3 13,-6l39 -39c8,-8 8,-17 0,-25z"
   id="path29" />
  <path
   class="fil4 str4"
   d="M112 75l-38 39c-3,3 -6,6 -6,12 0,7 6,13 12,13l13 0c3,0 6,3 6,7l0 85 52 0 0 -85c0,-4 3,-7 6,-7l13 0c6,0 12,-6 12,-13 0,-6 -3,-9 -6,-12l-38 -39c-9,-8 -17,-8 -26,0z"
   id="path31" />
 </g>
</svg>