<?xml version="1.0" encoding="UTF-8" standalone="no"?>
<!-- Creator: CorelDRAW X6 -->

<svg
   xmlns:dc="http://purl.org/dc/elements/1.1/"
   xmlns:cc="http://creativecommons.org/ns#"
   xmlns:rdf="http://www.w3.org/1999/02/22-rdf-syntax-ns#"
   xmlns:svg="http://www.w3.org/2000/svg"
   xmlns="http://www.w3.org/2000/svg"
   xmlns:sodipodi="http://sodipodi.sourceforge.net/DTD/sodipodi-0.dtd"
   xmlns:inkscape="http://www.inkscape.org/namespaces/inkscape"
   xml:space="preserve"
   width="100%"
   height="100%"
   version="1.1"
   style="shape-rendering:geometricPrecision; text-rendering:geometricPrecision; image-rendering:optimizeQuality; fill-rule:evenodd; clip-rule:evenodd"
   viewBox="0 0 500 500"
   id="svg2"
   inkscape:version="0.48.4 r9939"
   sodipodi:docname="search_with_rotation.svg"
   inkscape:export-filename="C:\Users\PeterSchregle\Desktop\search_with_rotation.png"
   inkscape:export-xdpi="5.7600002"
   inkscape:export-ydpi="5.7600002"><metadata
   id="metadata48"><rdf:RDF><cc:Work
       rdf:about=""><dc:format>image/svg+xml</dc:format><dc:type
         rdf:resource="http://purl.org/dc/dcmitype/StillImage" /><dc:title></dc:title></cc:Work></rdf:RDF></metadata><sodipodi:namedview
   pagecolor="#ffffff"
   bordercolor="#666666"
   borderopacity="1"
   objecttolerance="10"
   gridtolerance="10"
   guidetolerance="10"
   inkscape:pageopacity="0"
   inkscape:pageshadow="2"
   inkscape:window-width="640"
   inkscape:window-height="480"
   id="namedview46"
   showgrid="false"
   inkscape:zoom="0.472"
   inkscape:cx="250"
   inkscape:cy="250"
   inkscape:window-x="3982"
   inkscape:window-y="179"
   inkscape:window-maximized="0"
   inkscape:current-layer="svg2" />
 <defs
   id="defs4">
  <style
   type="text/css"
   id="style6">
   
    .str3 {stroke:#3B9CFF;stroke-width:0.01}
    .str4 {stroke:#666666;stroke-width:20}
    .str2 {stroke:#686868;stroke-width:20}
    .str1 {stroke:#008DEB;stroke-width:30}
    .str0 {stroke:#D30A0A;stroke-width:30}
    .fil0 {fill:none}
    .fil1 {fill:#686868}
    .fil2 {fill:#666666;fill-rule:nonzero}
   
  </style>
 </defs>
 <g
   id="Layer_x0020_1">
  <metadata
   id="CorelCorpID_0Corel-Layer" />
  <path
   class="fil0 str0"
   d="M225 335l0 -120m60 60l-120 0"
   id="path10" />
  <path
   class="fil0 str1"
   d="M350 210l0 -120m60 60l-120 0"
   id="path12" />
  <line
   class="fil0 str2"
   x1="225"
   y1="365"
   x2="225"
   y2="428"
   id="line14" />
  <g
   id="_1106380592">
   <polygon
   class="fil1"
   points="252,425 197,425 224,474 "
   id="polygon17" />
   <polygon
   class="fil1"
   points="197,124 253,124 225,76 "
   id="polygon19" />
  </g>
  <line
   class="fil0 str2"
   x1="225"
   y1="178"
   x2="225"
   y2="121"
   id="line21" />
  <line
   class="fil0 str2"
   x1="140"
   y1="275"
   x2="71"
   y2="275"
   id="line23" />
  <g
   id="_1106381520">
   <polygon
   class="fil1"
   points="74,302 74,247 26,274 "
   id="polygon26" />
   <polygon
   class="fil1"
   points="375,247 375,303 424,275 "
   id="polygon28" />
  </g>
  <line
   class="fil0 str2"
   x1="300"
   y1="275"
   x2="378"
   y2="275"
   id="line30" />
  <rect
   class="fil0 str3"
   width="500"
   height="500"
   id="rect32" />
  <path
   class="fil0 str4"
   d="M131 270c0,26 10,51 29,69 38,38 99,38 137,0 4,-4 8,-9 12,-14"
   id="path34" />
  <g
   id="g36">
   <path
   class="fil2"
   d="M257 309l1 19 -1 0 0 0 -1 0 0 0 -1 0 0 0 -1 0 0 0 -1 -1 0 0 -1 0 0 0 0 -1 -1 0 0 0 0 -1 -1 0 0 0 0 -1 -1 0 0 0 0 -1 0 0 -1 -1 0 0 0 0 0 -1 0 0 0 -1 0 0 0 -1 0 0 0 -1 0 0 0 -1 0 0 0 -1 0 0 0 -1 0 0 0 -1 1 0 0 0 0 -1 0 0 1 -1 0 0 0 0 1 -1 0 0 0 0 1 0 0 -1 1 0 0 0 1 0 0 -1 0 0 1 0 0 0 1 0 0 0 1 0 0 0zm47 19l-46 0 -1 -19 47 -1 0 20 0 0zm0 0l0 0 0 0 0 0zm15 -14l-15 13 0 0 0 0 0 0 0 0 0 0 0 0 0 0 1 0 0 0 0 0 0 1 0 0 0 0 0 0 0 0 0 0 0 0 0 0 1 0 0 0 0 0 0 0 0 0 0 0 -1 0 0 0 0 0 0 0 0 0 0 0 0 0 -1 0 0 0 0 -20 0 0 1 0 0 0 0 0 1 0 0 0 0 0 1 0 0 0 1 0 0 1 1 0 0 0 1 0 0 0 1 0 0 0 1 0 0 1 1 0 0 0 1 0 1 1 0 0 1 0 0 1 1 0 0 0 1 1 0 0 0 0 1 1 0 0zm-15 13l0 0 0 0 0 0zm20 1l-20 0 0 0 0 0 0 -1 0 0 0 0 0 0 0 0 0 0 0 0 0 -1 0 0 0 0 0 0 0 0 0 0 0 0 0 0 0 0 0 0 0 1 0 0 0 0 0 0 0 0 0 0 0 0 0 0 0 0 0 0 0 0 0 0 0 0 0 0 15 -13 0 0 1 1 0 0 0 1 1 0 0 1 0 0 1 1 0 0 0 1 1 0 0 1 0 1 0 0 0 1 0 0 1 1 0 0 0 1 0 0 0 0 0 1 0 0 0 1 0 0 0 0 0 1 0 0 0 0 0 1 0 0 0 0 0 0zm-20 0l0 0 0 0 0 0zm-1 46l1 -46 20 0 -1 47 -20 -1zm0 0l20 1 0 0 0 1 0 0 0 0 0 1 0 0 0 1 0 0 -1 1 0 0 0 1 0 0 -1 0 0 1 0 0 -1 0 0 1 0 0 -1 0 0 1 -1 0 0 0 0 0 -1 0 0 1 -1 0 0 0 -1 0 0 0 -1 0 0 0 -1 0 0 0 -1 0 0 0 -1 0 0 0 -1 0 0 -1 -1 0 0 0 -1 0 0 0 0 -1 -1 0 0 0 0 0 -1 -1 0 0 0 -1 -1 0 0 0 0 -1 0 0 -1 0 0 -1 0 0 0 -1 0 0 0 -1 -1 0 0 -1 0 0 0 -1z"
   id="path38" />
  </g>
  <path
   class="fil0 str4"
   d="M310 275c0,-26 -10,-51 -28,-69 -38,-38 -100,-38 -138,0 -4,4 -8,9 -11,14"
   id="path40" />
  <g
   id="g42">
   <path
   class="fil2"
   d="M184 236l-1 -19 1 0 0 0 1 0 0 0 1 0 0 0 1 0 0 0 1 1 0 0 1 0 0 0 0 0 1 1 0 0 0 0 1 1 0 0 0 0 1 1 0 0 0 1 0 0 1 0 0 1 0 0 0 1 0 0 0 1 0 0 0 1 0 0 0 1 0 0 0 1 0 0 0 1 0 0 0 1 0 0 0 0 -1 1 0 0 0 1 0 0 -1 0 0 1 0 0 -1 0 0 1 0 0 -1 0 0 1 -1 0 0 0 -1 0 0 0 0 1 -1 0 0 0 -1 0 0 0 -1 0 0 0zm-47 -19l46 0 1 19 -47 1 0 -20 0 0zm0 0l0 0 0 0 0 0zm-15 14l15 -13 0 0 0 0 0 0 0 0 0 0 0 0 0 0 0 0 -1 -1 0 0 0 0 0 0 0 0 0 0 0 0 0 0 0 0 0 0 0 0 -1 0 0 0 0 0 1 0 0 0 0 0 0 0 0 0 0 0 0 0 0 0 0 0 1 0 0 0 0 20 0 0 0 0 -1 0 0 0 -1 0 0 -1 0 0 -1 0 0 0 -1 0 0 0 -1 0 0 0 -1 0 0 0 -1 0 0 0 -1 -1 0 0 -1 0 0 0 -1 0 -1 -1 0 0 -1 0 0 -1 -1 0 0 0 0 -1 -1 0 0 -1 -1 0 0 0zm15 -13l0 0 0 0 0 0zm-20 -1l20 0 0 0 0 0 0 0 0 1 0 0 0 0 0 0 0 0 0 0 0 0 0 0 0 1 0 0 0 0 0 0 0 0 0 0 0 -1 0 0 0 0 0 0 0 0 0 0 0 0 0 0 0 0 0 0 0 0 0 0 0 0 0 0 0 0 0 0 -15 13 0 0 -1 -1 0 0 0 -1 -1 0 0 -1 0 0 -1 -1 0 -1 0 0 -1 -1 0 0 0 -1 0 0 0 -1 0 0 0 -1 -1 0 0 -1 0 0 0 -1 0 0 0 0 0 -1 0 0 0 -1 0 0 0 0 0 0 0 -1 0 0 0 0 0 0zm20 0l0 0 0 0 0 0zm1 -46l-1 46 -20 0 1 -47 20 1zm0 0l-20 -1 0 0 0 -1 0 0 0 -1 0 0 0 -1 0 0 1 0 0 -1 0 0 0 -1 0 0 1 0 0 -1 0 0 1 -1 0 0 0 0 1 0 0 -1 1 0 0 0 0 0 1 -1 0 0 1 0 0 0 1 0 0 0 1 0 0 0 1 0 0 0 1 0 0 0 1 0 0 0 1 0 0 0 1 1 0 0 1 0 0 0 0 0 1 1 0 0 0 0 1 1 0 0 0 0 1 1 0 0 0 1 1 0 0 0 0 1 0 0 0 1 0 0 1 1 0 0 0 1 0 0 0 1z"
   id="path44" />
  </g>
 </g>
</svg>