<?xml version="1.0" encoding="UTF-8"?>
<!DOCTYPE svg PUBLIC "-//W3C//DTD SVG 1.1//EN" "http://www.w3.org/Graphics/SVG/1.1/DTD/svg11.dtd">
<!-- Creator: Snipicons.com -->
<svg xmlns="http://www.w3.org/2000/svg" xml:space="preserve" width="100%" height="100%" version="1.1" style="shape-rendering:geometricPrecision; text-rendering:geometricPrecision; image-rendering:optimizeQuality; fill-rule:evenodd; clip-rule:evenodd"
viewBox="0 0 500 500"
 xmlns:xlink="http://www.w3.org/1999/xlink">
 <defs>
  <style type="text/css">
   <![CDATA[
    .str0 {stroke:#3B9CFF;stroke-width:22.21}
    .str1 {stroke:#006AB1;stroke-width:5}
    .fil0 {fill:none}
    .fil3 {fill:#006AB1}
    .fil4 {fill:#666666}
    .fil2 {fill:url(#id0)}
    .fil1 {fill:url(#id1)}
   ]]>
  </style>
  <linearGradient id="id0" gradientUnits="userSpaceOnUse" x1="239.581" y1="34.609" x2="153.079" y2="357.439">
   <stop offset="0" style="stop-color:#0081D8"/>
   <stop offset="0.2" style="stop-color:#4EB7FF"/>
   <stop offset="0.580392" style="stop-color:#008DEB"/>
   <stop offset="1" style="stop-color:#006AB1"/>
  </linearGradient>
  <linearGradient id="id1" gradientUnits="userSpaceOnUse" x1="391.153" y1="452.514" x2="452.211" y2="391.456">
   <stop offset="0" style="stop-color:#0075C4"/>
   <stop offset="0.121569" style="stop-color:#008DEB"/>
   <stop offset="0.368627" style="stop-color:#4EB7FF"/>
   <stop offset="0.729412" style="stop-color:#0099FF"/>
   <stop offset="1" style="stop-color:#0075C4"/>
  </linearGradient>
 </defs>
 <g id="Layer_x0020_1">
  <metadata id="SnipMaster"/>
  
  <path class="fil1" d="M455 456c-18,18 -50,20 -67,0l-105 -128 45 -45 127 105c21,17 19,49 0,68z"/>
  <path class="fil2" d="M357 239c-24,89 -115,141 -204,118 -88,-24 -141,-115 -117,-204 23,-89 115,-141 203,-118 89,24 142,115 118,204zm-28 -7c-19,73 -95,117 -168,97 -74,-20 -117,-95 -98,-169 20,-73 96,-117 169,-97 73,20 117,95 97,169z"/>
  <path class="fil3" d="M357 239c-23,89 -115,142 -204,118 -1,0 -2,0 -2,-1 88,22 178,-30 201,-118 24,-88 -28,-179 -115,-204 1,1 2,1 2,1 89,24 142,115 118,204z"/>
  <circle class="fil0 str1" transform="matrix(-0.261551 0.976123 -0.976134 -0.261554 196.33 196.023)" r="136"/>
  <path class="fil4" d="M211 291l-29 0c-5,0 -9,-4 -9,-9l0 -53c0,-5 -5,-9 -10,-9l-52 0c-5,0 -10,-4 -10,-10l0 -28c0,-5 5,-10 10,-10l52 0c5,0 10,-4 10,-9l0 -52c0,-6 4,-10 9,-10l29 0c5,0 9,4 9,10l0 52c0,5 4,9 10,9l52 0c5,0 9,5 9,10l0 28c0,6 -4,10 -9,10l-52 0c-6,0 -10,4 -10,9l0 53c0,5 -4,9 -9,9z"/>
 </g>
</svg>
